Ejemplos de uso del paquete {agromet}
…
datos %>% 
  summarise(extremos(t_30 = t_max >= 30))

##       N      prop  na extremo
## 1 12616 0.5532605 721    t_30

Pero si quisieramos hacer el mismo conteo para cada ao:

datos %>% 
  group_by(anio = floor_date(fecha, "year")) %>% 
  summarise(extremos(t_30 = t_max >= 30))

## `summarise()` ungrouping output (override with `.groups` argument)

## # A tibble: 65 x 5
##    anio                    N    prop    na extremo
##    <dttm>              <int>   <dbl> <int> <chr>  
##  1 1956-01-01 00:00:00    18   0.18    175 t_30   
##  2 1957-01-01 00:00:00   180   0.496     2 t_30   
##  3 1958-01-01 00:00:00     0 NaN       365 t_30   
##  4 1959-01-01 00:00:00   174   0.477     0 t_30   
##  5 1960-01-01 00:00:00   188   0.514     0 t_30   
##  6 1961-01-01 00:00:00   198   0.574    20 t_30   
##  7 1962-01-01 00:00:00   175   0.479     0 t_30   
##  8 1963-01-01 00:00:00   206   0.566     1 t_30   
##  9 1964-01-01 00:00:00   181   0.495     0 t_30   
## 10 1965-01-01 00:00:00   194   0.532     0 t_30   
## #  with 55 more rows
…
