Transformaciones estadísticas de variables — decil • agroclimatico
…
# Deciles mensuales
precip_mensual <- NH0358 %>%
  group_by(fecha = lubridate::floor_date(fecha, "month")) %>%
  summarise(precip = sum(precip, na.rm = TRUE))

precip_mensual %>%
  mutate(deciles = decil(precip))
#> # A tibble: 839 × 3
#>    fecha      precip deciles
#>    <date>      <dbl>   <dbl>
#>  1 1951-01-01   85.2   6.00 
#>  2 1951-02-01  156.    8.64 
#>  3 1951-03-01   32.1   1.91 
#>  4 1951-04-01   43.6   2.87 
#>  5 1951-05-01  243.    9.74 
#>  6 1951-06-01   27.2   1.60 
#>  7 1951-07-01    1.4   0.119
#>  8 1951-08-01   88     6.25 
#>  9 1951-09-01   25.3   1.45 
#> 10 1951-10-01   37     2.42 
#> # ℹ 829 more rows

# Definiendo un periodo de referencia
precip_mensual %>%
  mutate(deciles = decil(precip,
                         referencia = lubridate::year(fecha) <= 1958))
#> # A tibble: 839 × 3
#>    fecha      precip deciles
#>    <date>      <dbl>   <dbl>
#>  1 1951-01-01   85.2   6.88 
#>  2 1951-02-01  156.    8.75 
#>  3 1951-03-01   32.1   2.19 
#>  4 1951-04-01   43.6   3.33 
#>  5 1951-05-01  243.    9.90 
#>  6 1951-06-01   27.2   1.56 
#>  7 1951-07-01    1.4   0.104
#>  8 1951-08-01   88     6.98 
#>  9 1951-09-01   25.3   1.35 
#> 10 1951-10-01   37     3.02 
#> # ℹ 829 more rows
…
