Calcula la Ocurrencia de eventos a Partir de Umbrales — umbrales • agroclimatico
…
data(NH0358)
library(dplyr)

# Sin agrupar devuelve un único valor
NH0358 %>%
 summarise(umbrales(t_30 = t_max >= 30))
#>   extremo    N      prop          na
#> 1    t_30 3389 0.1330376 0.001606898

# Si se agrupan los datos devuelve un valor por cada grupo
NH0358 %>%
  group_by(fecha = lubridate::floor_date(fecha, "1 month")) %>%
  summarise(umbrales(t_30 = t_max >= 30))
#> # A tibble: 839 × 5
#>    fecha      extremo     N   prop    na
#>    <date>     <chr>   <int>  <dbl> <dbl>
#>  1 1951-01-01 t_30       21 0.677      0
#>  2 1951-02-01 t_30        5 0.179      0
#>  3 1951-03-01 t_30        4 0.129      0
#>  4 1951-04-01 t_30        1 0.0333     0
#>  5 1951-05-01 t_30        0 0          0
#>  6 1951-06-01 t_30        0 0          0
#>  7 1951-07-01 t_30        0 0          0
#>  8 1951-08-01 t_30        0 0          0
#>  9 1951-09-01 t_30        2 0.0667     0
#> 10 1951-10-01 t_30        0 0          0
#> # ℹ 829 more rows
…
